2020-01-26 20:57:25.779;INFO;SCAN_EXCEPTION
2020-01-26 22:58:57.794;ERROR;SCAN_EXCEPTION
2020-01-26 22:39:21.353;WARN;REFLECTIVE_OPERATION_EXCEPTION
2020-01-26 22:59:34.636;INFO;DATATYPE_EXCEPTION
2020-01-26 23:01:13.107;TRACE;EVALUATION_EXCEPTION
2020-01-26 18:21:39.828;INFO;REFLECTIVE_OPERATION_EXCEPTION
2020-01-26 17:54:52.887;ERROR;DATATYPE_EXCEPTION
2020-01-26 15:58:11.206;DEBUG;REFLECTIVE_OPERATION_EXCEPTION
2020-01-26 17:45:39.524;TRACE;REFLECTIVE_OPERATION_EXCEPTION
2020-01-26 18:24:50.699;ERROR;PROPERTY_SETTER_EXCEPTION
2020-01-26 20:17:38.717;TRACE;REFLECTIVE_OPERATION_EXCEPTION
2020-01-26 20:31:14.227;DEBUG;EVALUATION_EXCEPTION
2020-01-26 22:43:06.123;DEBUG;UNMODIFIABLE_CLASS_EXCEPTION
2020-01-26 21:59:06.442;ERROR;UNMODIFIABLE_CLASS_EXCEPTION
2020-01-26 15:07:57.721;INFO;EVALUATION_EXCEPTION
2020-01-26 17:48:51.236;DEBUG;SCAN_EXCEPTION
2020-01-26 21:22:01.298;DEBUG;DATATYPE_EXCEPTION
2020-01-26 16:57:14.76;WARN;UNMODIFIABLE_CLASS_EXCEPTION
2020-01-26 20:24:50.631;INFO;DATATYPE_EXCEPTION
2020-01-26 15:52:34.392;DEBUG;PROPERTY_SETTER_EXCEPTION
2020-01-26 19:34:47.929;WARN;DATATYPE_EXCEPTION
2020-01-26 19:54:57.773;TRACE;SCAN_EXCEPTION
2020-01-26 15:34:28.119;INFO;UNMODIFIABLE_CLASS_EXCEPTION
2020-01-26 15:53:33.67;INFO;PROPERTY_SETTER_EXCEPTION
2020-01-26 22:23:49.23;ERROR;SCAN_EXCEPTION
2020-01-26 17:10:24.397;TRACE;EVALUATION_EXCEPTION
2020-01-26 15:33:34.102;DEBUG;SCAN_EXCEPTION
2020-01-26 18:12:20.687;DEBUG;EVALUATION_EXCEPTION
2020-01-26 21:32:58.342;TRACE;UNMODIFIABLE_CLASS_EXCEPTION
2020-01-26 20:03:57.626;ERROR;PROPERTY_SETTER_EXCEPTION
2020-01-26 22:14:25.893;ERROR;REFLECTIVE_OPERATION_EXCEPTION
2020-01-26 17:20:27.465;WARN;PROPERTY_SETTER_EXCEPTION
2020-01-26 17:04:34.917;DEBUG;DATATYPE_EXCEPTION
2020-01-26 20:21:25.081;DEBUG;EVALUATION_EXCEPTION
2020-01-26 18:18:40.981;TRACE;DATATYPE_EXCEPTION
2020-01-26 21:13:37.591;TRACE;EVALUATION_EXCEPTION
2020-01-26 15:29:50.034;DEBUG;REFLECTIVE_OPERATION_EXCEPTION
2020-01-26 16:20:24.352;ERROR;UNMODIFIABLE_CLASS_EXCEPTION
2020-01-26 16:02:28.376;ERROR;DATATYPE_EXCEPTION
2020-01-26 15:50:20.319;INFO;PROPERTY_SETTER_EXCEPTION
2020-01-26 20:23:38.902;WARN;REFLECTIVE_OPERATION_EXCEPTION
2020-01-26 21:31:37.728;WARN;UNMODIFIABLE_CLASS_EXCEPTION
2020-01-26 18:46:10.53;DEBUG;DATATYPE_EXCEPTION
2020-01-26 18:48:51.321;TRACE;SCAN_EXCEPTION
2020-01-26 18:52:58.975;TRACE;SCAN_EXCEPTION
2020-01-26 17:13:14.104;ERROR;SCAN_EXCEPTION
2020-01-26 20:47:09.998;WARN;REFLECTIVE_OPERATION_EXCEPTION
2020-01-26 20:09:56.895;TRACE;EVALUATION_EXCEPTION
2020-01-26 21:20:29.18;DEBUG;EVALUATION_EXCEPTION
2020-01-26 15:58:18.923;DEBUG;REFLECTIVE_OPERATION_EXCEPTION
2020-01-26 21:14:43.136;DEBUG;UNMODIFIABLE_CLASS_EXCEPTION
2020-01-26 23:01:51.582;TRACE;SCAN_EXCEPTION
2020-01-26 19:53:24.118;ERROR;SCAN_EXCEPTION
2020-01-26 20:52:16.158;ERROR;UNMODIFIABLE_CLASS_EXCEPTION
2020-01-26 20:01:31.239;WARN;PROPERTY_SETTER_EXCEPTION
2020-01-26 20:28:12.237;ERROR;REFLECTIVE_OPERATION_EXCEPTION
2020-01-26 21:30:35.205;ERROR;EVALUATION_EXCEPTION
2020-01-26 15:48:29.469;INFO;REFLECTIVE_OPERATION_EXCEPTION
2020-01-26 17:56:47.641;INFO;PROPERTY_SETTER_EXCEPTION
2020-01-26 15:38:44.772;WARN;UNMODIFIABLE_CLASS_EXCEPTION
2020-01-26 20:18:28.85;ERROR;EVALUATION_EXCEPTION
2020-01-26 20:17:32.796;TRACE;SCAN_EXCEPTION
2020-01-26 16:31:27.471;INFO;PROPERTY_SETTER_EXCEPTION
2020-01-26 16:17:12.874;ERROR;PROPERTY_SETTER_EXCEPTION
2020-01-26 20:19:49.9;TRACE;REFLECTIVE_OPERATION_EXCEPTION
2020-01-26 17:06:43.74;INFO;EVALUATION_EXCEPTION
2020-01-26 15:26:14.809;DEBUG;UNMODIFIABLE_CLASS_EXCEPTION
2020-01-26 22:09:31.129;ERROR;EVALUATION_EXCEPTION
2020-01-26 21:26:56.693;INFO;PROPERTY_SETTER_EXCEPTION
2020-01-26 20:03:36.273;WARN;REFLECTIVE_OPERATION_EXCEPTION
2020-01-26 15:09:10.186;WARN;EVALUATION_EXCEPTION
2020-01-26 16:19:58.139;TRACE;UNMODIFIABLE_CLASS_EXCEPTION
2020-01-26 20:14:12.185;INFO;PROPERTY_SETTER_EXCEPTION
2020-01-26 20:08:52.373;TRACE;EVALUATION_EXCEPTION
2020-01-26 15:39:09.439;WARN;REFLECTIVE_OPERATION_EXCEPTION
2020-01-26 19:22:18.319;TRACE;UNMODIFIABLE_CLASS_EXCEPTION
2020-01-26 19:22:33.773;WARN;PROPERTY_SETTER_EXCEPTION
2020-01-26 16:10:35.353;DEBUG;DATATYPE_EXCEPTION
2020-01-26 15:58:13.101;DEBUG;REFLECTIVE_OPERATION_EXCEPTION
2020-01-26 18:06:34.164;TRACE;PROPERTY_SETTER_EXCEPTION
2020-01-26 23:01:42.505;WARN;REFLECTIVE_OPERATION_EXCEPTION
2020-01-26 15:13:30.769;DEBUG;SCAN_EXCEPTION
2020-01-26 15:14:53.593;TRACE;PROPERTY_SETTER_EXCEPTION
2020-01-26 21:32:03.978;ERROR;SCAN_EXCEPTION
2020-01-26 21:43:30.546;ERROR;SCAN_EXCEPTION
2020-01-26 20:34:03.9;TRACE;UNMODIFIABLE_CLASS_EXCEPTION
2020-01-26 18:17:15.644;WARN;UNMODIFIABLE_CLASS_EXCEPTION
2020-01-26 17:20:53.075;ERROR;DATATYPE_EXCEPTION
2020-01-26 22:43:23.869;WARN;EVALUATION_EXCEPTION
2020-01-26 16:43:05.921;ERROR;UNMODIFIABLE_CLASS_EXCEPTION
2020-01-26 17:04:13.463;TRACE;SCAN_EXCEPTION
2020-01-26 20:05:39.693;DEBUG;UNMODIFIABLE_CLASS_EXCEPTION
2020-01-26 20:24:15.265;ERROR;PROPERTY_SETTER_EXCEPTION
2020-01-26 21:45:24.058;ERROR;PROPERTY_SETTER_EXCEPTION
2020-01-26 22:29:16.329;DEBUG;PROPERTY_SETTER_EXCEPTION
2020-01-26 19:19:29.892;DEBUG;EVALUATION_EXCEPTION
2020-01-26 18:10:20.895;DEBUG;REFLECTIVE_OPERATION_EXCEPTION
2020-01-26 21:46:34.052;INFO;EVALUATION_EXCEPTION
2020-01-26 17:31:22.378;ERROR;PROPERTY_SETTER_EXCEPTION
2020-01-26 22:05:08.926;INFO;PROPERTY_SETTER_EXCEPTION
